
[
    {
      "name": "Apple iPhone 13 pro",
      "price": "25000 uah.",
      "url": "img/iphone13.jpg",
      "article": "10001",
      "color": "Black"
    },
    {
      "name": "Sony WH-1000XM4",
      "price": "8000 uah.",
      "url": "img/headphones.jpg",
      "article": "10002",
      "color": "Gold"
    },
    {
      "name": "Dell XPS 15",
      "price": "45000 uah.",
      "url": "img/laptop.jpg",
      "article": "10003",
      "color": "Silver"
    },
    {
      "name": "Canon EOS R5",
      "price": "65000 uah.",
      "url": "img/kamera.jpg",
      "article": "10004",
      "color": "Black"
    },
    {
      "name": "DJI Mavic Air 2",
      "price": "20000 uah.",
      "url": "img/mavik.jpg",
      "article": "10005",
      "color": "Silver"
    },
    {
      "name": "Samsung QLED 55'",
      "price": "30000 uah.",
      "url": "img/tv.jpg",
      "article": "10006",
      "color": "Black"
    },
    {
      "name": "Apple Watch Series 7",
      "price": "12000 uah.",
      "url": "img/watch.jpg",
      "article": "10007",
      "color": "Space Gray"
    },
    {
      "name": "Microsoft Surface Pro 7",
      "price": "22000 uah.",
      "url": "img/tablet.jpg",
      "article": "10008",
      "color": "Silver"
    },
    {
      "name": "HP LaserJet Pro",
      "price": "5000 uah.",
      "url": "img/drucker.jpg",
      "article": "10009",
      "color": "White"
    },
    {
      "name": "TP-Link Archer AX50",
      "price": "2000 uah.",
      "url": "img/router.jpg",
      "article": "10010",
      "color": "Black"
    },
    {
    "name": "Air pods pro 2",
    "price": "10500 uah.",
    "url": "img/airpods.jpg",
    "article": "10011",
    "color": "White"
    },
  {
    "name": "Mechanical keyboard",
    "price": "7000 uah.",
    "url": "img/keyboard.jpg",
    "article": "10012",
    "color": "Black"
  }
]
